<svg xmlns="http://www.w3.org/2000/svg" width="51.35" height="62.354" viewBox="0 0 51.35 62.354">
  <path id="Icon_metro-file-upload" data-name="Icon metro-file-upload" d="M23.669,54.109H45.676V32.1H60.348L34.673,6.427,9,32.1H23.669ZM9,61.445h51.35v7.336H9Z" transform="translate(-8.997 -6.427)" fill="#fff"/>
</svg>
