<svg xmlns="http://www.w3.org/2000/svg" width="56" height="46.118" viewBox="0 0 56 46.118">
  <path id="Icon_material-view-list" data-name="Icon material-view-list" d="M6,37.147H19.176V23.971H6ZM6,53.618H19.176V40.441H6ZM6,20.676H19.176V7.5H6ZM22.471,37.147H62V23.971H22.471Zm0,16.471H62V40.441H22.471Zm0-46.118V20.676H62V7.5Z" transform="translate(-6 -7.5)" fill="#fff"/>
</svg>
